<?xml version="1.0" encoding="iso-8859-1"?>
<!-- Generator: Adobe Illustrator 19.0.0, SVG Export Plug-In . SVG Version: 6.00 Build 0)  -->
<svg version="1.1" id="Capa_1" xmlns="http://www.w3.org/2000/svg" xmlns:xlink="http://www.w3.org/1999/xlink" x="0px" y="0px"
	 viewBox="0 0 512 512" style="enable-background:new 0 0 512 512;" xml:space="preserve">
<g>
	<g>
		<path d="M419.572,109.177c-0.046-0.308-0.088-0.615-0.152-0.917c-2.427-14.114-3.816-29.075-3.816-45.06
			c0-18.307,14.893-33.2,33.199-33.2C467.108,30,482,44.894,482,63.2c0,8.284,6.716,15,15,15s15-6.716,15-15
			C512,28.352,483.65,0,448.803,0c-34.848,0-63.199,28.352-63.199,63.2c0,11.526,0.672,22.571,1.869,33.2h-66.886V15
			c0-8.284-6.716-15-15-15s-15,6.716-15,15v81.4h-69.168V15c0-8.284-6.716-15-15-15s-15,6.716-15,15v81.4h-66.887
			c1.197-10.629,1.869-21.674,1.869-33.2C126.4,28.352,98.049,0,63.202,0C28.352,0,0,28.352,0,63.2c0,8.284,6.716,15,15,15
			s15-6.716,15-15C30,44.894,44.894,30,63.202,30C81.507,30,96.4,44.894,96.4,63.2c0,15.981-1.389,30.939-3.815,45.052
			c-0.069,0.323-0.115,0.654-0.163,0.984c-9.228,52.466-32.962,93.07-54.453,129.82C17.595,273.897,0,303.985,0,336.334
			c0,48.092,27.441,92.871,77.267,126.089c10.932,7.288,22.678,13.82,35.085,19.577H63.2c-8.284,0-15,6.716-15,15s6.716,15,15,15
			h385.6c8.284,0,15-6.716,15-15s-6.716-15-15-15h-49.15c12.406-5.757,24.152-12.289,35.084-19.577
			C484.56,429.205,512,384.427,512,336.334c0-32.348-17.595-62.438-37.967-97.277C452.535,202.292,428.792,161.671,419.572,109.177z
			 M92.248,436.328C52.096,409.003,30,373.559,30,336.334c0-24.221,15.694-51.058,33.866-82.134
			c9.217-15.763,19.175-32.811,28.382-51.599V436.328z M191.418,475.932c-24.79-4.785-48.131-12.336-69.17-22.42V126.4h69.17
			V475.932z M290.586,480.298C279.246,481.424,267.694,482,256,482c-11.692,0-23.243-0.576-34.582-1.702V126.4h69.168V480.298z
			 M389.755,453.51c-21.038,10.084-44.379,17.635-69.169,22.42V126.4h69.169V453.51z M419.755,436.326V202.602
			c9.206,18.787,19.164,35.836,28.38,51.598C466.307,285.275,482,312.113,482,336.334C482,373.559,459.905,409.002,419.755,436.326z
			"/>
	</g>
</g>
<g>
</g>
<g>
</g>
<g>
</g>
<g>
</g>
<g>
</g>
<g>
</g>
<g>
</g>
<g>
</g>
<g>
</g>
<g>
</g>
<g>
</g>
<g>
</g>
<g>
</g>
<g>
</g>
<g>
</g>
</svg>
