<?xml version="1.0" encoding="iso-8859-1"?>
<!-- Generator: Adobe Illustrator 19.0.0, SVG Export Plug-In . SVG Version: 6.00 Build 0)  -->
<svg version="1.1" id="Capa_1" xmlns="http://www.w3.org/2000/svg" xmlns:xlink="http://www.w3.org/1999/xlink" x="0px" y="0px"
	 viewBox="0 0 512.002 512.002" style="enable-background:new 0 0 512.002 512.002;" xml:space="preserve">
<g>
	<g>
		<path d="M497,240.998c-8.284,0-15,6.716-15,15c0,16.624-1.813,33.147-5.397,49.267H271.001v-66.398h105.499
			c8.284,0,15-6.716,15-15s-6.716-15-15-15c-4.475,0-10.357-5.982-14.985-15.237c-6.471-12.94-10.182-31.2-10.182-50.097
			c0-18.897,3.711-37.155,10.182-50.096c4.628-9.257,10.51-15.237,14.985-15.237c8.284,0,15-6.716,15-15s-6.716-15-15-15H271.001V15
			c0-8.284-6.716-15-15-15c-8.284,0-15,6.716-15,15v33.2h-65.333c-31.45,0-55.167,40.984-55.167,95.332
			c0,54.35,23.717,95.333,55.167,95.333h65.333v66.398H35.4c-3.585-16.119-5.397-32.643-5.397-49.267
			c0-29.968,5.768-59.073,17.143-86.506c3.173-7.652-0.458-16.428-8.11-19.602c-7.652-3.17-16.428,0.459-19.601,8.111
			C6.541,189.096,0.004,222.066,0.004,255.998c0,23.126,3.101,46.088,9.218,68.247c0.001,0.004,0.001,0.007,0.002,0.01
			c14.616,52.95,46.731,100.7,90.43,134.457c18.05,13.942,37.533,25.248,58.068,33.806l4.02,10.05
			c2.346,5.864,7.979,9.433,13.932,9.433c1.854,0,3.739-0.346,5.566-1.077c3.71-1.483,6.488-4.288,8.038-7.651
			c21.498,5.769,43.862,8.725,66.723,8.725c33.1,0,65.156-6.191,95.046-18.162l3.493,8.733c2.346,5.864,7.979,9.433,13.932,9.433
			c1.853,0,3.739-0.346,5.566-1.077c7.691-3.076,11.433-11.806,8.355-19.498l-4.162-10.405
			c11.836-6.466,23.238-13.904,34.117-22.308c43.7-33.757,75.814-81.507,90.43-134.457c6.118-22.164,9.221-45.129,9.221-68.257
			C511.999,247.714,505.284,240.998,497,240.998z M175.669,208.865c-4.475,0-10.357-5.981-14.985-15.237
			c-6.471-12.94-10.182-31.2-10.182-50.097s3.711-37.155,10.181-50.096c4.628-9.257,10.511-15.237,14.986-15.237h159.948
			c-8.955,16.814-14.283,39.571-14.283,65.332c0,25.762,5.328,48.52,14.283,65.333H175.669z M366.935,452.775l-16.674-41.684
			c-3.076-7.69-11.802-11.436-19.498-8.355c-7.691,3.076-11.433,11.806-8.355,19.498l17.424,43.56
			c-18.439,7.397-37.982,12.418-58.195,14.734l-27.773-69.434c-3.077-7.692-11.805-11.433-19.498-8.357
			c-7.692,3.076-11.433,11.806-8.357,19.497l23.867,59.669c-24.041-0.652-47.356-5.131-69.254-12.916l-23.158-57.895
			c-3.077-7.69-11.805-11.436-19.498-8.355c-7.692,3.076-11.433,11.806-8.356,19.498l11.238,28.095
			c-43.576-25.857-78.198-66.066-96.542-115.065H467.7C448.766,385.835,412.493,427.045,366.935,452.775z"/>
	</g>
</g>
<g>
</g>
<g>
</g>
<g>
</g>
<g>
</g>
<g>
</g>
<g>
</g>
<g>
</g>
<g>
</g>
<g>
</g>
<g>
</g>
<g>
</g>
<g>
</g>
<g>
</g>
<g>
</g>
<g>
</g>
</svg>
