<?xml version="1.0" standalone="no"?>
<!DOCTYPE svg PUBLIC "-//W3C//DTD SVG 20010904//EN"
 "http://www.w3.org/TR/2001/REC-SVG-20010904/DTD/svg10.dtd">
<svg version="1.0" xmlns="http://www.w3.org/2000/svg"
 width="1313.000000pt" height="2839.000000pt" viewBox="0 0 1313.000000 2839.000000"
 preserveAspectRatio="xMidYMid meet">
<metadata>
Created by potrace 1.15, written by Peter Selinger 2001-2017
</metadata>
<g transform="translate(0.000000,2839.000000) scale(0.100000,-0.100000)"
fill="#ffffff" stroke="none">
<path d="M10641 28189 c-336 -35 -685 -161 -967 -347 -224 -149 -398 -324
-555 -560 -258 -388 -357 -770 -299 -1147 39 -260 45 -329 33 -413 -15 -98
-41 -159 -108 -248 -106 -141 -145 -251 -145 -412 0 -134 14 -207 91 -480 91
-323 102 -385 96 -541 -3 -111 -9 -146 -51 -296 -61 -224 -87 -357 -93 -485
-6 -121 7 -172 50 -204 25 -18 31 -19 75 -8 162 43 390 195 621 417 l104 100
-188 -235 c-632 -788 -1011 -1375 -1139 -1760 -51 -154 -58 -230 -34 -381 13
-82 21 -198 25 -339 6 -256 -6 -365 -72 -665 -50 -230 -63 -302 -105 -588 -78
-529 -230 -1152 -445 -1817 -42 -129 -105 -336 -141 -460 -269 -928 -481
-1582 -742 -2291 -66 -178 -129 -362 -140 -409 -30 -125 -42 -256 -42 -473 0
-244 17 -419 82 -822 78 -493 78 -683 -2 -854 -46 -98 -97 -157 -242 -283
-142 -122 -188 -176 -188 -218 0 -63 49 -75 355 -90 222 -11 532 -34 925 -70
118 -11 216 -17 218 -15 5 4 -4 17 -125 187 -187 263 -191 344 -31 612 94 155
136 243 230 471 38 94 118 271 178 395 60 124 125 270 145 325 88 239 191 646
275 1095 58 313 103 605 255 1655 228 1581 308 2074 419 2600 249 1184 441
1857 698 2450 138 319 262 531 653 1120 150 226 319 487 375 580 124 207 286
533 335 674 121 355 148 669 75 903 -36 116 -83 180 -295 398 -161 165 -207
219 -237 275 -56 108 -71 173 -66 279 7 114 27 174 133 396 121 251 169 408
240 780 20 102 51 264 69 360 19 96 32 177 30 179 -2 2 -43 -9 -91 -24 -158
-48 -299 -137 -407 -256 -79 -88 -146 -192 -287 -444 -163 -293 -157 -283
-165 -261 -14 35 4 269 26 351 47 174 140 332 284 482 258 271 646 466 1047
527 120 18 240 48 240 59 -1 4 -1 20 -1 36 0 27 -6 31 -99 70 -257 106 -583
151 -880 120z m-767 -4029 c48 -57 48 -161 1 -254 -30 -60 -119 -152 -173
-180 l-32 -17 0 241 0 240 89 0 c87 0 90 -1 115 -30z"/>
<path d="M312 14519 c-119 -23 -207 -134 -219 -278 -15 -178 87 -347 296 -489
48 -33 492 -290 988 -570 495 -281 938 -534 984 -563 264 -165 420 -321 514
-514 85 -176 98 -309 46 -466 -18 -52 -39 -107 -47 -122 -9 -16 -14 -30 -12
-31 1 -1 55 -31 118 -65 188 -102 1140 -665 1137 -673 -1 -3 -63 -52 -137
-108 -517 -391 -956 -845 -1432 -1483 -391 -524 -729 -1091 -902 -1512 -369
-899 -534 -1621 -553 -2420 -29 -1227 344 -2384 1033 -3209 194 -232 371 -396
739 -686 325 -256 485 -453 539 -666 8 -32 22 -121 30 -196 24 -209 63 -287
174 -346 78 -42 163 -61 302 -67 164 -8 2015 -34 2925 -42 1210 -9 1897 17
2395 93 380 58 698 146 1459 403 535 181 766 254 982 310 505 130 933 168
1323 116 61 -8 111 -13 113 -12 6 6 -189 77 -292 105 -252 71 -463 96 -785 96
-369 -1 -587 -26 -1405 -164 -488 -82 -773 -121 -1030 -142 -203 -16 -816 -15
-1220 2 -410 18 -1111 19 -1295 2 -353 -32 -560 -69 -905 -162 -375 -100 -536
-127 -709 -117 -119 7 -198 26 -282 68 -59 30 -164 112 -154 121 3 3 48 19
100 38 1065 371 2071 1070 2807 1950 818 976 1349 2232 1467 3470 27 280 52
819 59 1272 l2 138 755 -446 c415 -245 829 -489 920 -543 338 -201 459 -271
470 -271 6 0 28 -11 50 -25 49 -31 61 -31 87 -3 52 57 89 193 129 473 22 150
25 526 6 660 -69 479 -232 815 -594 1222 -358 404 -796 715 -1552 1101 -209
106 -445 221 -525 254 -368 151 -3576 1752 -4586 2288 -143 76 -456 240 -695
365 -1251 654 -2535 1341 -2810 1503 -479 284 -675 366 -808 341z m3831 -2807
c586 -300 797 -415 797 -432 0 -9 -239 -167 -365 -241 -49 -29 -134 -81 -188
-116 -54 -35 -102 -63 -108 -63 -5 0 -208 118 -452 262 -243 144 -461 272
-483 285 l-41 23 18 68 c11 37 28 94 38 127 11 33 45 140 76 238 44 138 60
177 71 173 8 -3 294 -149 637 -324z m2530 -1188 c380 -190 1054 -529 1496
-752 l804 -407 -6 -165 c-7 -173 -78 -1012 -90 -1052 -2 -6 -3120 1831 -3139
1850 -7 7 24 140 102 434 62 232 114 426 117 431 2 4 8 7 14 7 5 0 321 -156
702 -346z m647 -1659 l1535 -906 -3 -42 c-6 -80 -53 -473 -77 -642 -165 -1148
-488 -2121 -970 -2924 -415 -690 -932 -1229 -1677 -1749 -369 -258 -645 -385
-765 -353 -94 25 -111 87 -117 416 -4 263 -15 342 -67 475 -84 218 -244 401
-494 567 -106 70 -198 123 -475 270 -289 155 -347 191 -364 227 -19 42 -59
167 -55 171 2 1 141 -46 309 -105 l305 -108 7 86 c15 201 135 728 423 1852
197 769 294 1199 590 2605 139 661 197 918 241 1073 l16 53 51 -30 c29 -16
743 -437 1587 -936z m2525 46 c231 -120 454 -236 495 -257 110 -55 219 -141
355 -278 148 -149 235 -270 324 -451 121 -244 175 -450 175 -670 0 -112 -21
-321 -42 -421 l-7 -32 -842 497 -841 496 -6 90 c-3 50 -10 209 -16 355 -6 146
-18 344 -26 440 -8 96 -17 240 -21 319 -6 139 -6 144 13 137 10 -4 208 -105
439 -225z"/>
</g>
</svg>
