<?xml version="1.0" standalone="no"?>
<!DOCTYPE svg PUBLIC "-//W3C//DTD SVG 20010904//EN"
 "http://www.w3.org/TR/2001/REC-SVG-20010904/DTD/svg10.dtd">
<svg version="1.0" xmlns="http://www.w3.org/2000/svg"
 width="87.000000pt" height="87.000000pt" viewBox="0 0 87.000000 87.000000"
 preserveAspectRatio="xMidYMid meet">
<metadata>
Created by potrace 1.11, written by Peter Selinger 2001-2013
</metadata>
<g transform="translate(0.000000,87.000000) scale(0.100000,-0.100000)"
fill="#000000" stroke="none">
<path d="M400 800 c-14 -16 -31 -29 -38 -30 -7 0 -10 -4 -7 -10 6 -9 -7 -14
-27 -11 -4 0 -5 -6 -2 -14 4 -9 -2 -18 -17 -24 -13 -5 -21 -10 -17 -10 10 -1
-82 -91 -93 -91 -5 0 -9 -4 -9 -10 0 -11 -91 -100 -103 -100 -4 0 -6 -4 -3 -8
3 -5 -5 -15 -19 -22 -34 -18 -25 -39 49 -110 36 -35 62 -68 59 -74 -3 -6 -2
-8 2 -3 11 9 95 -72 95 -91 0 -7 4 -11 9 -8 10 6 77 -65 73 -77 -1 -5 2 -6 7
-3 5 3 21 -7 34 -24 24 -28 57 -33 57 -9 0 5 6 9 13 9 8 0 20 11 27 25 7 14
19 25 27 25 7 0 13 4 13 8 0 12 128 142 140 142 6 0 10 4 10 9 0 15 82 91 92
85 4 -3 7 -2 6 3 -5 14 30 56 41 49 5 -4 13 -1 17 6 4 7 4 10 0 6 -9 -8 -82
71 -78 84 1 5 -1 7 -6 4 -12 -7 -54 38 -45 49 5 4 3 6 -2 2 -6 -3 -69 53 -140
124 -71 71 -132 129 -135 129 -3 0 -17 -13 -30 -30z"/>
</g>
</svg>
